1) first fire the npm i
2) then fire node app.js
3) the go to postman and call the following API

    i) router.post('/add_user',userController.ListUser);
    ii) router.get('/all_user',userController.get_all_user);
    iii) router.post('/delete_record',userController.delete_user);
    iv) router.patch('/allocate_user',userController.allocate_company);

    Add_user Postman BODY :
    {
    "company_id":"Asdfsd",
    "user_name":"Ak",
    "email":"ak@gmail.com",
    "phone":"8789586"
    }
    
    allocate_user Body:
    {
     "_id":"5fa11446270a14419cb792ce",   
    "company_id":"5fa0f0d49ef6f72ef1c4ba82",
    "user_name":"Ak47",
    "email":"ak74@gmail.com",
    "phone":"8789586145"
    }

    delete_record Body:
    {
    "company_id":"5fa0f08c9ef6f72ef1c4ba80"
    }

    get_all_user Body:
    Not required